{
  "firstName": "Che",
  "lastName": "Guevara",
  "username": "che",
  "email": "che@example.com",
  "avatar": "http://www.clipartbest.com/cliparts/Rid/pek/Ridpek6i9.jpeg",
  "followed": true,
  "bookList": [ ]
}