{
	"reviews": [
		{
			"name": "Драган",
			"reviewText": "Много е добра, силно препоръчвам!",
			"rating": 5.0
		},
		{
			"name": "Петкан",
			"reviewText": "Добра е, с някои забележки.",
			"rating": 4.5
		},
		{
			"name": "Иван",
			"reviewText": "Почти перфектна.",
			"rating": 4.7
		},
		{
			"name": "Георги",
			"reviewText": "Чел съм и по-добри книги.",
			"rating": 3.0
		}
	]
}